^C:\DIAA-PC\EDUCATION\EDUCATION\SPRING 2017\CS 110\PROJECTS\SFML CLONE\SFML CLONE\DEBUG\MAIN.OBJ
C:\DIAA-PC\EDUCATION\EDUCATION\SPRING 2017\CS 110\PROJECTS\SFML CLONE\DEBUG\SFML CLONE.ILK
C:\DIAA-PC\EDUCATION\EDUCATION\SPRING 2017\CS 110\PROJECTS\SFML CLONE\DEBUG\SFML CLONE.EXE
C:\DIAA-PC\EDUCATION\EDUCATION\SPRING 2017\CS 110\PROJECTS\SFML CLONE\DEBUG\SFML CLONE.PDB
